HW_KLTN_10/stage_8_primitive_verify/sim_stage8_15256.backup.log
#-----------------------------------------------------------
# xsim v2022.2 (64-bit)
# SW Build 3671981 on Fri Oct 14 05:00:03 MDT 2022
# IP Build 3669848 on Fri Oct 14 08:30:02 MDT 2022
# Start of session at: Sat Apr  4 13:49:39 2026
# Process ID: 15256
# Current directory: e:/FINAL_HMH_KLTN_10_HMH/HMH_KLTN_10_KAITOKID/HW_KLTN_10/stage_8_primitive_verify
# Command line: xsim.exe -log sim_stage8.log -mode tcl -source {xsim.dir/sim_s8/xsim_script.tcl}
# Log file: e:/FINAL_HMH_KLTN_10_HMH/HMH_KLTN_10_KAITOKID/HW_KLTN_10/stage_8_primitive_verify/sim_stage8.log
# Journal file: e:/FINAL_HMH_KLTN_10_HMH/HMH_KLTN_10_KAITOKID/HW_KLTN_10/stage_8_primitive_verify\xsim.jou
# Running On: DESKTOP-BIO81U9, OS: Windows, CPU Frequency: 2592 MHz, CPU Physical cores: 6, Host memory: 8403 MB
#-----------------------------------------------------------
source xsim.dir/sim_s8/xsim_script.tcl
# xsim {sim_s8} -autoloadwcfg -runall
Time resolution is 1 ps
run -all

═══════════ TEST RS3 ═══════════
  [WTB] 86000 WR addr=0 d[0]=-78 d[1]=-78
  [WTB] 90000 WR addr=1 d[0]=6 d[1]=6
  [WTB] 94000 WR addr=2 d[0]=-108 d[1]=-108
  [WTB] 98000 WR addr=3 d[0]=-115 d[1]=-115
  [WTB] 102000 WR addr=4 d[0]=113 d[1]=113
  [WTB] 106000 WR addr=5 d[0]=121 d[1]=121
  [WTB] 110000 WR addr=6 d[0]=-18 d[1]=-18
  [WTB] 114000 WR addr=7 d[0]=59 d[1]=59
  [WTB] 118000 WR addr=8 d[0]=70 d[1]=70
  [WTB] 122000 WR addr=9 d[0]=-48 d[1]=-48
  [WTB] 126000 WR addr=10 d[0]=35 d[1]=35
  [WTB] 130000 WR addr=11 d[0]=-79 d[1]=-79
  [WTB] 138000 WR addr=0 d[0]=-56 d[1]=-56
  [WTB] 142000 WR addr=1 d[0]=38 d[1]=38
  [WTB] 146000 WR addr=2 d[0]=-111 d[1]=-111
  [WTB] 150000 WR addr=3 d[0]=-120 d[1]=-120
  [WTB] 154000 WR addr=4 d[0]=-39 d[1]=-39
  [WTB] 158000 WR addr=5 d[0]=-76 d[1]=-76
  [WTB] 162000 WR addr=6 d[0]=43 d[1]=43
  [WTB] 166000 WR addr=7 d[0]=124 d[1]=124
  [WTB] 170000 WR addr=8 d[0]=-121 d[1]=-121
  [WTB] 174000 WR addr=9 d[0]=-25 d[1]=-25
  [WTB] 178000 WR addr=10 d[0]=3 d[1]=3
  [WTB] 182000 WR addr=11 d[0]=-127 d[1]=-127
  [WTB] 190000 WR addr=0 d[0]=3 d[1]=3
  [WTB] 194000 WR addr=1 d[0]=-40 d[1]=-40
  [WTB] 198000 WR addr=2 d[0]=-69 d[1]=-69
  [WTB] 202000 WR addr=3 d[0]=1 d[1]=1
  [WTB] 206000 WR addr=4 d[0]=-45 d[1]=-45
  [WTB] 210000 WR addr=5 d[0]=-37 d[1]=-37
  [WTB] 214000 WR addr=6 d[0]=46 d[1]=46
  [WTB] 218000 WR addr=7 d[0]=-94 d[1]=-94
  [WTB] 222000 WR addr=8 d[0]=77 d[1]=77
  [WTB] 226000 WR addr=9 d[0]=125 d[1]=125
  [WTB] 230000 WR addr=10 d[0]=5 d[1]=5
  [WTB] 234000 WR addr=11 d[0]=-75 d[1]=-75
  [DESC] pe_mode=0 cin=1 cout=4 hin=3 win=20 kh=3 kw=3 stride=1 pad=1
  [ACCEPT] accepted, mode_reg=0 ppu_done_latch=0
  [FSM] 246000 state 0 -> 1  mode=0 k_pass=0 seq_done=0 ppu_done_l=0
  [CFG] 246000  mode=0 cin=0 cout=0 kh=0 kw=0 hin=0 win=0 hout=0 wout=0 act=0 zp_x=0
  [FSM] 1 -> 2 at cycle 1
  [FSM] 250000 state 1 -> 2  mode=0 k_pass=0 seq_done=0 ppu_done_l=0
  [FSM] 2 -> 3 at cycle 2
  [FSM] 254000 state 2 -> 3  mode=0 k_pass=0 seq_done=0 ppu_done_l=0
  [FSM] 3 -> 4 at cycle 3
  [FSM] 258000 state 3 -> 4  mode=0 k_pass=0 seq_done=0 ppu_done_l=0
  [SEQ] 262000 ss=0->1 h=0 wblk=0 cout_grp=0 cin=0 kw=0 pe_en=0 clr=0 ppu_trig=0
  [SEQ] 266000 ss=1->2 h=0 wblk=0 cout_grp=0 cin=0 kw=0 pe_en=0 clr=0 ppu_trig=0
  [SEQ] 270000 ss=2->3 h=0 wblk=0 cout_grp=0 cin=0 kw=0 pe_en=1 clr=1 ppu_trig=0
  [GLB-IN] 270000  bank0d[0]=-26 bank1d[0]=21 bank2d[0]=-70  padded=1 padval=0
  [GLB-WT] 270000  bk0c0[0]=-78 bk0c1[0]=-115 bk1c0[0]=-56 bk2c0[0]=3
  [ROUTE] 270000  act[0][0]=0 act[1][0]=-26 act[2][0]=21  wgt[0][0][0]=-78 wgt[1][0][0]=-56 wgt[2][0][0]=3
  [ADDR] 270000  agi_row0=0 agi_row1=0 agi_row2=0  agw_bk=0 agw_c0=0 agw_c1=3
  [SEQ] 274000 ss=3->4 h=0 wblk=0 cout_grp=0 cin=0 kw=0 pe_en=0 clr=0 ppu_trig=0
  [PE] 274000 pe_enable  act[0][0][0]=0 act[0][0][1]=0  wgt[0][0][0]=-78 wgt[0][0][1]=-78  clr=1
  [SEQ] 278000 ss=4->12 h=0 wblk=0 cout_grp=0 cin=0 kw=1 pe_en=0 clr=0 ppu_trig=0
  [SEQ] 282000 ss=12->3 h=0 wblk=0 cout_grp=0 cin=0 kw=1 pe_en=1 clr=0 ppu_trig=0
  [GLB-IN] 282000  bank0d[0]=-26 bank1d[0]=21 bank2d[0]=-70  padded=1 padval=0
  [GLB-WT] 282000  bk0c0[0]=6 bk0c1[0]=113 bk1c0[0]=38 bk2c0[0]=-40
  [ROUTE] 282000  act[0][0]=0 act[1][0]=-26 act[2][0]=21  wgt[0][0][0]=6 wgt[1][0][0]=38 wgt[2][0][0]=-40
  [ADDR] 282000  agi_row0=0 agi_row1=0 agi_row2=0  agw_bk=0 agw_c0=1 agw_c1=4
  [SEQ] 286000 ss=3->4 h=0 wblk=0 cout_grp=0 cin=0 kw=1 pe_en=0 clr=0 ppu_trig=0
  [PE] 286000 pe_enable  act[0][0][0]=0 act[0][0][1]=0  wgt[0][0][0]=6 wgt[0][0][1]=6  clr=0
  [SEQ] 290000 ss=4->12 h=0 wblk=0 cout_grp=0 cin=0 kw=2 pe_en=0 clr=0 ppu_trig=0
  [SEQ] 294000 ss=12->3 h=0 wblk=0 cout_grp=0 cin=0 kw=2 pe_en=1 clr=0 ppu_trig=0
  [GLB-IN] 294000  bank0d[0]=-26 bank1d[0]=21 bank2d[0]=-70  padded=1 padval=0
  [GLB-WT] 294000  bk0c0[0]=-108 bk0c1[0]=121 bk1c0[0]=-111 bk2c0[0]=-69
  [ROUTE] 294000  act[0][0]=0 act[1][0]=-26 act[2][0]=21  wgt[0][0][0]=-108 wgt[1][0][0]=-111 wgt[2][0][0]=-69
  [ADDR] 294000  agi_row0=0 agi_row1=0 agi_row2=0  agw_bk=0 agw_c0=2 agw_c1=5
  [SEQ] 298000 ss=3->4 h=0 wblk=0 cout_grp=0 cin=0 kw=2 pe_en=0 clr=0 ppu_trig=0
  [PE] 298000 pe_enable  act[0][0][0]=0 act[0][0][1]=0  wgt[0][0][0]=-108 wgt[0][0][1]=-108  clr=0
  [PE] 298000 pe_valid  psum_r0c0[0]=0 psum_r1c0[0]=1456 psum_r2c0[0]=63
  [CP-D] cyc=66  pe_psum_valid  mode_reg=0
  [SEQ] 302000 ss=4->5 h=0 wblk=0 cout_grp=0 cin=0 kw=0 pe_en=0 clr=0 ppu_trig=0
  [COLRED] 302000 reduced[0][0]=1519 reduced[0][1]=-3084  col_psum[0][0]=1519
  [CP-A] cyc=67  seq_ppu_trigger  cout_base=0
  [SEQ] 306000 ss=5->6 h=0 wblk=0 cout_grp=0 cin=0 kw=0 pe_en=0 clr=0 ppu_trig=1
  [SEQ] 310000 ss=6->7 h=0 wblk=0 cout_grp=0 cin=0 kw=0 pe_en=0 clr=0 ppu_trig=0
  [PE] 310000 pe_valid  psum_r0c0[0]=0 psum_r1c0[0]=468 psum_r2c0[0]=-777
  [CP-D] cyc=69  pe_psum_valid  mode_reg=0
  [SEQ] 314000 ss=7->8 h=0 wblk=0 cout_grp=0 cin=0 kw=0 pe_en=0 clr=0 ppu_trig=0
  [COLRED] 314000 reduced[0][0]=-309 reduced[0][1]=1894  col_psum[0][0]=-309
  [SEQ] 318000 ss=8->9 h=0 wblk=0 cout_grp=0 cin=0 kw=0 pe_en=0 clr=0 ppu_trig=0
  [SEQ] 322000 ss=9->2 h=1 wblk=0 cout_grp=0 cin=0 kw=0 pe_en=0 clr=0 ppu_trig=0
  [PE] 322000 pe_valid  psum_r0c0[0]=0 psum_r1c0[0]=3354 psum_r2c0[0]=-2226
  [CP-D] cyc=72  pe_psum_valid  mode_reg=0
  [SEQ] 326000 ss=2->3 h=1 wblk=0 cout_grp=0 cin=0 kw=0 pe_en=1 clr=1 ppu_trig=0
  [COLRED] 326000 reduced[0][0]=1128 reduced[0][1]=1477  col_psum[0][0]=1128
  [GLB-IN] 326000  bank0d[0]=-26 bank1d[0]=21 bank2d[0]=-70  padded=0 padval=0
  [GLB-WT] 326000  bk0c0[0]=-78 bk0c1[0]=-115 bk1c0[0]=-56 bk2c0[0]=3
  [ROUTE] 326000  act[0][0]=-26 act[1][0]=21 act[2][0]=-70  wgt[0][0][0]=-78 wgt[1][0][0]=-56 wgt[2][0][0]=3
  [ADDR] 326000  agi_row0=0 agi_row1=0 agi_row2=0  agw_bk=0 agw_c0=0 agw_c1=3
  [CP-B] cyc=73  ppu_trigger_delayed  psum[0][0]=1128
  [SEQ] 330000 ss=3->4 h=1 wblk=0 cout_grp=0 cin=0 kw=0 pe_en=0 clr=0 ppu_trig=0
  [PE] 330000 pe_enable  act[0][0][0]=-26 act[0][0][1]=51  wgt[0][0][0]=-78 wgt[0][0][1]=-78  clr=1
  [PPU] 330000 IN  psum[0]=1128 psum[1]=1477  bias=0 m=1 sh=10 zp=0 act=1
  [PPU] 330000 IN  psum[0]=4409 psum[1]=-5829  bias=0 m=1 sh=10 zp=0 act=1
  [PPU] 330000 IN  psum[0]=-587 psum[1]=142  bias=0 m=1 sh=10 zp=0 act=1
  [PPU] 330000 IN  psum[0]=5029 psum[1]=-11779  bias=0 m=1 sh=10 zp=0 act=1
  [PSUM] 330000  col0[0]=1128 col0[1]=1477  col1[0]=4409  col2[0]=-587  col3[0]=5029
  [SEQ] 334000 ss=4->12 h=1 wblk=0 cout_grp=0 cin=0 kw=1 pe_en=0 clr=0 ppu_trig=0
  [SEQ] 338000 ss=12->3 h=1 wblk=0 cout_grp=0 cin=0 kw=1 pe_en=1 clr=0 ppu_trig=0
  [GLB-IN] 338000  bank0d[0]=-26 bank1d[0]=21 bank2d[0]=-70  padded=0 padval=0
  [GLB-WT] 338000  bk0c0[0]=6 bk0c1[0]=113 bk1c0[0]=38 bk2c0[0]=-40
  [ROUTE] 338000  act[0][0]=-26 act[1][0]=21 act[2][0]=-70  wgt[0][0][0]=6 wgt[1][0][0]=38 wgt[2][0][0]=-40
  [ADDR] 338000  agi_row0=0 agi_row1=0 agi_row2=0  agw_bk=0 agw_c0=1 agw_c1=4
  [SEQ] 342000 ss=3->4 h=1 wblk=0 cout_grp=0 cin=0 kw=1 pe_en=0 clr=0 ppu_trig=0
  [PE] 342000 pe_enable  act[0][0][0]=-26 act[0][0][1]=51  wgt[0][0][0]=6 wgt[0][0][1]=6  clr=0
  [SEQ] 346000 ss=4->12 h=1 wblk=0 cout_grp=0 cin=0 kw=2 pe_en=0 clr=0 ppu_trig=0
  [CP-C] cyc=78  ppu_act_valid[0]  act_out[0][0]=1  wr_en0=0
  [SEQ] 350000 ss=12->3 h=1 wblk=0 cout_grp=0 cin=0 kw=2 pe_en=1 clr=0 ppu_trig=0
  [PPU] 350000 OUT act[0]=1 act[1]=1
  [PPU] 350000 OUT act[0]=4 act[1]=0
  [PPU] 350000 OUT act[0]=0 act[1]=0
  [PPU] 350000 OUT act[0]=5 act[1]=0
  [GLB-IN] 350000  bank0d[0]=-26 bank1d[0]=21 bank2d[0]=-70  padded=0 padval=0
  [GLB-WT] 350000  bk0c0[0]=-108 bk0c1[0]=121 bk1c0[0]=-111 bk2c0[0]=-69
  [ROUTE] 350000  act[0][0]=-26 act[1][0]=21 act[2][0]=-70  wgt[0][0][0]=-108 wgt[1][0][0]=-111 wgt[2][0][0]=-69
  [ADDR] 350000  agi_row0=0 agi_row1=0 agi_row2=0  agw_bk=0 agw_c0=2 agw_c1=5
  [CP-F] cyc=79  UNEXPECTED act_wr_en[0]=1
  [SEQ] 354000 ss=3->4 h=1 wblk=0 cout_grp=0 cin=0 kw=2 pe_en=0 clr=0 ppu_trig=0
  [OBANK] 354000 ACT_WR  addr=0  d[0]=1 d[1]=1
  [OBANK] 354000 ACT_WR  addr=0  d[0]=4 d[1]=0
  [OBANK] 354000 ACT_WR  addr=0  d[0]=0 d[1]=0
  [OBANK] 354000 ACT_WR  addr=0  d[0]=5 d[1]=0
  [PE] 354000 pe_enable  act[0][0][0]=-26 act[0][0][1]=51  wgt[0][0][0]=-108 wgt[0][0][1]=-108  clr=0
  [PE] 354000 pe_valid  psum_r0c0[0]=2028 psum_r1c0[0]=-1176 psum_r2c0[0]=-210
  [ACT-WR] 354000  act0[0]=1 act0[1]=1  wr_en=1111  addr_hold=0
  [CP-D] cyc=80  pe_psum_valid  mode_reg=0
  [SEQ] 358000 ss=4->5 h=1 wblk=0 cout_grp=0 cin=0 kw=0 pe_en=0 clr=0 ppu_trig=0
  [COLRED] 358000 reduced[0][0]=642 reduced[0][1]=656  col_psum[0][0]=642
  [CP-A] cyc=81  seq_ppu_trigger  cout_base=0
  [SEQ] 362000 ss=5->6 h=1 wblk=0 cout_grp=0 cin=0 kw=0 pe_en=0 clr=0 ppu_trig=1
  [SEQ] 366000 ss=6->7 h=1 wblk=0 cout_grp=0 cin=0 kw=0 pe_en=0 clr=0 ppu_trig=0
  [PE] 366000 pe_valid  psum_r0c0[0]=1872 psum_r1c0[0]=-378 psum_r2c0[0]=2590
  [CP-D] cyc=83  pe_psum_valid  mode_reg=0
  [SEQ] 370000 ss=7->8 h=1 wblk=0 cout_grp=0 cin=0 kw=0 pe_en=0 clr=0 ppu_trig=0
  [COLRED] 370000 reduced[0][0]=4084 reduced[0][1]=-6966  col_psum[0][0]=4084
  [SEQ] 374000 ss=8->9 h=1 wblk=0 cout_grp=0 cin=0 kw=0 pe_en=0 clr=0 ppu_trig=0
  [SEQ] 378000 ss=9->2 h=2 wblk=0 cout_grp=0 cin=0 kw=0 pe_en=0 clr=0 ppu_trig=0
  [PE] 378000 pe_valid  psum_r0c0[0]=4680 psum_r1c0[0]=-2709 psum_r2c0[0]=7420
  [CP-D] cyc=86  pe_psum_valid  mode_reg=0
  [SEQ] 382000 ss=2->3 h=2 wblk=0 cout_grp=0 cin=0 kw=0 pe_en=1 clr=1 ppu_trig=0
  [COLRED] 382000 reduced[0][0]=9391 reduced[0][1]=-12732  col_psum[0][0]=9391
  [GLB-IN] 382000  bank0d[0]=-26 bank1d[0]=21 bank2d[0]=-70  padded=0 padval=0
  [GLB-WT] 382000  bk0c0[0]=-78 bk0c1[0]=-115 bk1c0[0]=-56 bk2c0[0]=3
  [ROUTE] 382000  act[0][0]=21 act[1][0]=-70 act[2][0]=0  wgt[0][0][0]=-78 wgt[1][0][0]=-56 wgt[2][0][0]=3
  [ADDR] 382000  agi_row0=0 agi_row1=0 agi_row2=0  agw_bk=0 agw_c0=0 agw_c1=3
  [CP-B] cyc=87  ppu_trigger_delayed  psum[0][0]=9391
  [SEQ] 386000 ss=3->4 h=2 wblk=0 cout_grp=0 cin=0 kw=0 pe_en=0 clr=0 ppu_trig=0
  [PE] 386000 pe_enable  act[0][0][0]=21 act[0][0][1]=-76  wgt[0][0][0]=-78 wgt[0][0][1]=-78  clr=1
  [PPU] 386000 IN  psum[0]=9391 psum[1]=-12732  bias=0 m=1 sh=10 zp=0 act=1
  [PPU] 386000 IN  psum[0]=-2359 psum[1]=13723  bias=0 m=1 sh=10 zp=0 act=1
  [PPU] 386000 IN  psum[0]=-3950 psum[1]=5819  bias=0 m=1 sh=10 zp=0 act=1
  [PPU] 386000 IN  psum[0]=-4587 psum[1]=13562  bias=0 m=1 sh=10 zp=0 act=1
  [PSUM] 386000  col0[0]=9391 col0[1]=-12732  col1[0]=-2359  col2[0]=-3950  col3[0]=-4587
  [SEQ] 390000 ss=4->12 h=2 wblk=0 cout_grp=0 cin=0 kw=1 pe_en=0 clr=0 ppu_trig=0
  [SEQ] 394000 ss=12->3 h=2 wblk=0 cout_grp=0 cin=0 kw=1 pe_en=1 clr=0 ppu_trig=0
  [GLB-IN] 394000  bank0d[0]=-26 bank1d[0]=21 bank2d[0]=-70  padded=0 padval=0
  [GLB-WT] 394000  bk0c0[0]=6 bk0c1[0]=113 bk1c0[0]=38 bk2c0[0]=-40
  [ROUTE] 394000  act[0][0]=21 act[1][0]=-70 act[2][0]=0  wgt[0][0][0]=6 wgt[1][0][0]=38 wgt[2][0][0]=-40
  [ADDR] 394000  agi_row0=0 agi_row1=0 agi_row2=0  agw_bk=0 agw_c0=1 agw_c1=4
  [SEQ] 398000 ss=3->4 h=2 wblk=0 cout_grp=0 cin=0 kw=1 pe_en=0 clr=0 ppu_trig=0
  [PE] 398000 pe_enable  act[0][0][0]=21 act[0][0][1]=-76  wgt[0][0][0]=6 wgt[0][0][1]=6  clr=0
  [SEQ] 402000 ss=4->12 h=2 wblk=0 cout_grp=0 cin=0 kw=2 pe_en=0 clr=0 ppu_trig=0
  [CP-C] cyc=92  ppu_act_valid[0]  act_out[0][0]=9  wr_en0=0
  [SEQ] 406000 ss=12->3 h=2 wblk=0 cout_grp=0 cin=0 kw=2 pe_en=1 clr=0 ppu_trig=0
  [PPU] 406000 OUT act[0]=9 act[1]=0
  [PPU] 406000 OUT act[0]=0 act[1]=13
  [PPU] 406000 OUT act[0]=0 act[1]=6
  [PPU] 406000 OUT act[0]=0 act[1]=13
  [GLB-IN] 406000  bank0d[0]=-26 bank1d[0]=21 bank2d[0]=-70  padded=0 padval=0
  [GLB-WT] 406000  bk0c0[0]=-108 bk0c1[0]=121 bk1c0[0]=-111 bk2c0[0]=-69
  [ROUTE] 406000  act[0][0]=21 act[1][0]=-70 act[2][0]=0  wgt[0][0][0]=-108 wgt[1][0][0]=-111 wgt[2][0][0]=-69
  [ADDR] 406000  agi_row0=0 agi_row1=0 agi_row2=0  agw_bk=0 agw_c0=2 agw_c1=5
  [CP-F] cyc=93  UNEXPECTED act_wr_en[0]=1
  [SEQ] 410000 ss=3->4 h=2 wblk=0 cout_grp=0 cin=0 kw=2 pe_en=0 clr=0 ppu_trig=0
  [OBANK] 410000 ACT_WR  addr=1  d[0]=9 d[1]=0
  [OBANK] 410000 ACT_WR  addr=1  d[0]=0 d[1]=13
  [OBANK] 410000 ACT_WR  addr=1  d[0]=0 d[1]=6
  [OBANK] 410000 ACT_WR  addr=1  d[0]=0 d[1]=13
  [PE] 410000 pe_enable  act[0][0][0]=21 act[0][0][1]=-76  wgt[0][0][0]=-108 wgt[0][0][1]=-108  clr=0
  [PE] 410000 pe_valid  psum_r0c0[0]=-1638 psum_r1c0[0]=3920 psum_r2c0[0]=0
  [ACT-WR] 410000  act0[0]=9 act0[1]=0  wr_en=1111  addr_hold=1
  [CP-D] cyc=94  pe_psum_valid  mode_reg=0
  [SEQ] 414000 ss=4->5 h=2 wblk=0 cout_grp=0 cin=0 kw=0 pe_en=0 clr=0 ppu_trig=0
  [COLRED] 414000 reduced[0][0]=2282 reduced[0][1]=-1128  col_psum[0][0]=2282
  [CP-A] cyc=95  seq_ppu_trigger  cout_base=0
  [SEQ] 418000 ss=5->6 h=2 wblk=0 cout_grp=0 cin=0 kw=0 pe_en=0 clr=0 ppu_trig=1
  [SEQ] 422000 ss=6->7 h=2 wblk=0 cout_grp=0 cin=0 kw=0 pe_en=0 clr=0 ppu_trig=0
  [PE] 422000 pe_valid  psum_r0c0[0]=-1512 psum_r1c0[0]=1260 psum_r2c0[0]=0
  [CP-D] cyc=97  pe_psum_valid  mode_reg=0
  [SEQ] 426000 ss=7->8 h=2 wblk=0 cout_grp=0 cin=0 kw=0 pe_en=0 clr=0 ppu_trig=0
  [COLRED] 426000 reduced[0][0]=-252 reduced[0][1]=3204  col_psum[0][0]=-252
  [SEQ] 430000 ss=8->9 h=2 wblk=0 cout_grp=0 cin=0 kw=0 pe_en=0 clr=0 ppu_trig=0
  [SEQ] 434000 ss=9->11 h=2 wblk=0 cout_grp=0 cin=0 kw=0 pe_en=0 clr=0 ppu_trig=0
  [PE] 434000 pe_valid  psum_r0c0[0]=-3780 psum_r1c0[0]=9030 psum_r2c0[0]=0
  [CP-D] cyc=100  pe_psum_valid  mode_reg=0
  [SEQ] 438000 ss=11->0 h=2 wblk=0 cout_grp=0 cin=0 kw=0 pe_en=0 clr=0 ppu_trig=0
  [COLRED] 438000 reduced[0][0]=5250 reduced[0][1]=-2574  col_psum[0][0]=5250
  [FSM] 4 -> 5 at cycle 49
  [CP-B] cyc=101  ppu_trigger_delayed  psum[0][0]=5250
  [FSM] 442000 state 4 -> 5  mode=0 k_pass=0 seq_done=0 ppu_done_l=0
  [SEQ] 442000 ss=0->1 h=2 wblk=0 cout_grp=0 cin=0 kw=0 pe_en=0 clr=0 ppu_trig=0
  [PPU] 442000 IN  psum[0]=5250 psum[1]=-2574  bias=0 m=1 sh=10 zp=0 act=1
  [PPU] 442000 IN  psum[0]=18949 psum[1]=-38654  bias=0 m=1 sh=10 zp=0 act=1
  [PPU] 442000 IN  psum[0]=-889 psum[1]=-2640  bias=0 m=1 sh=10 zp=0 act=1
  [PPU] 442000 IN  psum[0]=8498 psum[1]=-11782  bias=0 m=1 sh=10 zp=0 act=1
  [PSUM] 442000  col0[0]=5250 col0[1]=-2574  col1[0]=18949  col2[0]=-889  col3[0]=8498
  [SEQ] 446000 ss=1->2 h=0 wblk=0 cout_grp=0 cin=0 kw=0 pe_en=0 clr=0 ppu_trig=0
  [SEQ] 450000 ss=2->3 h=0 wblk=0 cout_grp=0 cin=0 kw=0 pe_en=1 clr=1 ppu_trig=0
  [GLB-IN] 450000  bank0d[0]=-26 bank1d[0]=21 bank2d[0]=-70  padded=1 padval=0
  [GLB-WT] 450000  bk0c0[0]=-78 bk0c1[0]=-115 bk1c0[0]=-56 bk2c0[0]=3
  [ROUTE] 450000  act[0][0]=0 act[1][0]=-26 act[2][0]=21  wgt[0][0][0]=-78 wgt[1][0][0]=-56 wgt[2][0][0]=3
  [ADDR] 450000  agi_row0=0 agi_row1=0 agi_row2=0  agw_bk=0 agw_c0=0 agw_c1=3
  [SEQ] 454000 ss=3->4 h=0 wblk=0 cout_grp=0 cin=0 kw=0 pe_en=0 clr=0 ppu_trig=0
  [PE] 454000 pe_enable  act[0][0][0]=0 act[0][0][1]=0  wgt[0][0][0]=-78 wgt[0][0][1]=-78  clr=1
  [SEQ] 458000 ss=4->12 h=0 wblk=0 cout_grp=0 cin=0 kw=1 pe_en=0 clr=0 ppu_trig=0
  [CP-C] cyc=106  ppu_act_valid[0]  act_out[0][0]=5  wr_en0=0
  [SEQ] 462000 ss=12->3 h=0 wblk=0 cout_grp=0 cin=0 kw=1 pe_en=1 clr=0 ppu_trig=0
  [PPU] 462000 OUT act[0]=5 act[1]=0
  [PPU] 462000 OUT act[0]=19 act[1]=0
  [PPU] 462000 OUT act[0]=0 act[1]=0
  [PPU] 462000 OUT act[0]=8 act[1]=0
  [GLB-IN] 462000  bank0d[0]=-26 bank1d[0]=21 bank2d[0]=-70  padded=1 padval=0
  [GLB-WT] 462000  bk0c0[0]=6 bk0c1[0]=113 bk1c0[0]=38 bk2c0[0]=-40
  [ROUTE] 462000  act[0][0]=0 act[1][0]=-26 act[2][0]=21  wgt[0][0][0]=6 wgt[1][0][0]=38 wgt[2][0][0]=-40
  [ADDR] 462000  agi_row0=0 agi_row1=0 agi_row2=0  agw_bk=0 agw_c0=1 agw_c1=4
  [FSM] 5 -> 6 at cycle 55
  [CP-F] cyc=107  UNEXPECTED act_wr_en[0]=1
  [FSM] 466000 state 5 -> 6  mode=0 k_pass=0 seq_done=0 ppu_done_l=0
  [SEQ] 466000 ss=3->4 h=0 wblk=0 cout_grp=0 cin=0 kw=1 pe_en=0 clr=0 ppu_trig=0
  [OBANK] 466000 ACT_WR  addr=2  d[0]=5 d[1]=0
  [OBANK] 466000 ACT_WR  addr=2  d[0]=19 d[1]=0
  [OBANK] 466000 ACT_WR  addr=2  d[0]=0 d[1]=0
  [OBANK] 466000 ACT_WR  addr=2  d[0]=8 d[1]=0
  [PE] 466000 pe_enable  act[0][0][0]=0 act[0][0][1]=0  wgt[0][0][0]=6 wgt[0][0][1]=6  clr=0
  [ACT-WR] 466000  act0[0]=5 act0[1]=0  wr_en=1111  addr_hold=2
  [FSM] 6 -> 8 at cycle 56
  [FSM] 470000 state 6 -> 8  mode=0 k_pass=0 seq_done=0 ppu_done_l=1
  [SEQ] 470000 ss=4->12 h=0 wblk=0 cout_grp=0 cin=0 kw=2 pe_en=0 clr=0 ppu_trig=0
  [FSM] 8 -> 9 at cycle 57
  tile_done after 57 cycles
  [FSM] 474000 state 8 -> 9  mode=0 k_pass=0 seq_done=0 ppu_done_l=1
  [SEQ] 474000 ss=12->3 h=0 wblk=0 cout_grp=0 cin=0 kw=2 pe_en=1 clr=0 ppu_trig=0
  [GLB-IN] 474000  bank0d[0]=-26 bank1d[0]=21 bank2d[0]=-70  padded=1 padval=0
  [GLB-WT] 474000  bk0c0[0]=-108 bk0c1[0]=121 bk1c0[0]=-111 bk2c0[0]=-69
  [ROUTE] 474000  act[0][0]=0 act[1][0]=-26 act[2][0]=21  wgt[0][0][0]=-108 wgt[1][0][0]=-111 wgt[2][0][0]=-69
  [ADDR] 474000  agi_row0=0 agi_row1=0 agi_row2=0  agw_bk=0 agw_c0=2 agw_c1=5
  [FSM] 478000 state 9 -> 0  mode=0 k_pass=0 seq_done=0 ppu_done_l=1
  [SEQ] 478000 ss=3->4 h=0 wblk=0 cout_grp=0 cin=0 kw=2 pe_en=0 clr=0 ppu_trig=0
  [PE] 478000 pe_enable  act[0][0][0]=0 act[0][0][1]=0  wgt[0][0][0]=-108 wgt[0][0][1]=-108  clr=0
  [PE] 478000 pe_valid  psum_r0c0[0]=0 psum_r1c0[0]=1456 psum_r2c0[0]=63
  [SEQ] 482000 ss=4->5 h=0 wblk=0 cout_grp=0 cin=0 kw=0 pe_en=0 clr=0 ppu_trig=0
  [COLRED] 482000 reduced[0][0]=1519 reduced[0][1]=-3084  col_psum[0][0]=1519
  [SEQ] 486000 ss=5->6 h=0 wblk=0 cout_grp=0 cin=0 kw=0 pe_en=0 clr=0 ppu_trig=1
  [SEQ] 490000 ss=6->7 h=0 wblk=0 cout_grp=0 cin=0 kw=0 pe_en=0 clr=0 ppu_trig=0
  [PE] 490000 pe_valid  psum_r0c0[0]=0 psum_r1c0[0]=468 psum_r2c0[0]=-777
  [SEQ] 494000 ss=7->8 h=0 wblk=0 cout_grp=0 cin=0 kw=0 pe_en=0 clr=0 ppu_trig=0
  [COLRED] 494000 reduced[0][0]=-309 reduced[0][1]=1894  col_psum[0][0]=-309
  [SEQ] 498000 ss=8->9 h=0 wblk=0 cout_grp=0 cin=0 kw=0 pe_en=0 clr=0 ppu_trig=0
  [SEQ] 502000 ss=9->2 h=1 wblk=0 cout_grp=0 cin=0 kw=0 pe_en=0 clr=0 ppu_trig=0
  [PE] 502000 pe_valid  psum_r0c0[0]=0 psum_r1c0[0]=3354 psum_r2c0[0]=-2226
  [SEQ] 506000 ss=2->3 h=1 wblk=0 cout_grp=0 cin=0 kw=0 pe_en=1 clr=1 ppu_trig=0
  [COLRED] 506000 reduced[0][0]=1128 reduced[0][1]=1477  col_psum[0][0]=1128
  [GLB-IN] 506000  bank0d[0]=-26 bank1d[0]=21 bank2d[0]=-70  padded=0 padval=0
  [GLB-WT] 506000  bk0c0[0]=-78 bk0c1[0]=-115 bk1c0[0]=-56 bk2c0[0]=3
  [ROUTE] 506000  act[0][0]=-26 act[1][0]=21 act[2][0]=-70  wgt[0][0][0]=-78 wgt[1][0][0]=-56 wgt[2][0][0]=3
  [ADDR] 506000  agi_row0=0 agi_row1=0 agi_row2=0  agw_bk=0 agw_c0=0 agw_c1=3
  [SEQ] 510000 ss=3->4 h=1 wblk=0 cout_grp=0 cin=0 kw=0 pe_en=0 clr=0 ppu_trig=0
  [PE] 510000 pe_enable  act[0][0][0]=-26 act[0][0][1]=51  wgt[0][0][0]=-78 wgt[0][0][1]=-78  clr=1
  [PPU] 510000 IN  psum[0]=1128 psum[1]=1477  bias=0 m=1 sh=10 zp=0 act=1
  [PPU] 510000 IN  psum[0]=4409 psum[1]=-5829  bias=0 m=1 sh=10 zp=0 act=1
  [PPU] 510000 IN  psum[0]=-587 psum[1]=142  bias=0 m=1 sh=10 zp=0 act=1
  [PPU] 510000 IN  psum[0]=5029 psum[1]=-11779  bias=0 m=1 sh=10 zp=0 act=1
  [PSUM] 510000  col0[0]=1128 col0[1]=1477  col1[0]=4409  col2[0]=-587  col3[0]=5029
  [SEQ] 514000 ss=4->12 h=1 wblk=0 cout_grp=0 cin=0 kw=1 pe_en=0 clr=0 ppu_trig=0
